<svg width="11" height="16" viewBox="0 0 11 16" fill="none" xmlns="http://www.w3.org/2000/svg">
<path d="M7.5625 14H2.75C2.38533 14 2.03559 13.842 1.77773 13.5607C1.51987 13.2794 1.375 12.8978 1.375 12.5C1.375 12.1022 1.51987 11.7206 1.77773 11.4393C2.03559 11.158 2.38533 11 2.75 11H7.5625C7.74484 11 7.91971 10.921 8.04864 10.7803C8.17757 10.6397 8.25 10.4489 8.25 10.25C8.25 10.0511 8.17757 9.86032 8.04864 9.71967C7.91971 9.57902 7.74484 9.5 7.5625 9.5H3.4375C2.52582 9.5 1.65148 9.10491 1.00682 8.40165C0.362164 7.69839 0 6.74456 0 5.75C0 4.75544 0.362164 3.80161 1.00682 3.09835C1.65148 2.39509 2.52582 2 3.4375 2H8.25C8.61467 2 8.96441 2.15804 9.22227 2.43934C9.48013 2.72064 9.625 3.10218 9.625 3.5C9.625 3.89782 9.48013 4.27936 9.22227 4.56066C8.96441 4.84196 8.61467 5 8.25 5H3.4375C3.25516 5 3.08029 5.07902 2.95136 5.21967C2.82243 5.36032 2.75 5.55109 2.75 5.75C2.75 5.94891 2.82243 6.13968 2.95136 6.28033C3.08029 6.42098 3.25516 6.5 3.4375 6.5H7.5625C8.47418 6.5 9.34852 6.89509 9.99318 7.59835C10.6378 8.30161 11 9.25544 11 10.25C11 11.2446 10.6378 12.1984 9.99318 12.9017C9.34852 13.6049 8.47418 14 7.5625 14Z" fill="#6C95FF"/>
<path d="M5.5 4C5.10218 4 4.72064 3.85952 4.43934 3.60948C4.15804 3.35943 4 3.02029 4 2.66667V1.33333C4 0.979711 4.15804 0.640573 4.43934 0.390525C4.72064 0.140476 5.10218 0 5.5 0C5.89782 0 6.27936 0.140476 6.56066 0.390525C6.84197 0.640573 7 0.979711 7 1.33333V2.66667C7 3.02029 6.84197 3.35943 6.56066 3.60948C6.27936 3.85952 5.89782 4 5.5 4Z" fill="#6C95FF"/>
<path d="M5.5 16C5.10218 16 4.72064 15.8595 4.43934 15.6095C4.15804 15.3594 4 15.0203 4 14.6667V13.3333C4 12.9797 4.15804 12.6406 4.43934 12.3905C4.72064 12.1405 5.10218 12 5.5 12C5.89782 12 6.27936 12.1405 6.56066 12.3905C6.84197 12.6406 7 12.9797 7 13.3333V14.6667C7 15.0203 6.84197 15.3594 6.56066 15.6095C6.27936 15.8595 5.89782 16 5.5 16Z" fill="#6C95FF"/>
</svg>
