<svg width="21" height="16" viewBox="0 0 21 16" fill="none" xmlns="http://www.w3.org/2000/svg">
<path d="M14.586 15.376L14.585 15.376C13.1062 15.3507 11.6372 15.1304 10.2161 14.7207L10.2147 14.7203C8.40781 14.1714 6.5078 13.9978 4.63137 14.21C3.70889 14.3223 2.79449 14.4932 1.89369 14.7215C1.7721 14.7523 1.64508 14.755 1.52231 14.7293C1.39953 14.7036 1.28423 14.6502 1.18522 14.5732L1.18058 14.5696L1.1807 14.5695C1.08853 14.4887 1.01556 14.3883 0.967107 14.2757C0.918909 14.1637 0.896172 14.0424 0.900526 13.9206V2.34268C0.8954 2.15501 0.954529 1.9712 1.06815 1.8217C1.18203 1.67186 1.34379 1.56552 1.5265 1.5204C2.58713 1.25473 3.6664 1.07 4.75501 0.967778L14.586 15.376ZM14.586 15.376C15.1724 15.3803 15.7587 15.3511 16.3418 15.2886L16.3426 15.2885C17.3376 15.1733 18.3237 14.9912 19.2942 14.7433C19.4768 14.6981 19.6385 14.5918 19.7523 14.442C19.866 14.2925 19.9251 14.1087 19.92 13.921V2.34296C19.9242 2.21429 19.8982 2.08642 19.844 1.96961C19.7897 1.85225 19.7084 1.74934 19.6068 1.66922L19.6063 1.6688C19.5073 1.59178 19.392 1.53838 19.2692 1.51268C19.1464 1.48698 19.0194 1.48966 18.8978 1.52051L18.8971 1.5207C17.916 1.77756 16.917 1.96053 15.9085 2.06805C14.1164 2.23949 12.308 2.0613 10.5838 1.54338L10.5837 1.54336M14.586 15.376L10.5837 1.54336M10.5837 1.54336C8.69601 0.97795 6.71688 0.782507 4.75506 0.967773L10.5837 1.54336ZM6.23548 12.4689L6.23548 12.4688L6.23121 12.4689C5.64414 12.484 5.0584 12.5326 4.47687 12.6144C3.82938 12.6864 3.18574 12.7894 2.54817 12.9231V2.99326C3.3271 2.82148 4.11626 2.69983 4.91081 2.62907L4.91121 2.62903C6.69206 2.46325 8.48817 2.64384 10.2004 3.16083L10.2011 3.16105C12.1027 3.71861 14.094 3.90414 16.0659 3.70748C16.7948 3.63645 17.5192 3.52601 18.2361 3.37665V13.2714C17.5492 13.4313 16.8539 13.5526 16.1534 13.6349C14.2887 13.8422 12.4013 13.6686 10.6057 13.1246L10.6044 13.1243C9.18329 12.7145 7.71429 12.4942 6.23548 12.4689Z" fill="#6C95FF" stroke="#6C95FF" stroke-width="0.2"/>
<path d="M0.900521 5.2364C0.899897 5.44388 0.977584 5.64395 1.11806 5.79665C1.25858 5.94938 1.45157 6.04345 1.65844 6.06006L1.65841 6.06038L1.00052 5.23655M0.900521 5.2364C0.900521 5.23634 0.900521 5.23629 0.900521 5.23623L1.00052 5.23655M0.900521 5.2364V5.23655H1.00052M0.900521 5.2364V2.34266M1.00052 5.23655V2.34126M0.900521 2.34266C0.900535 2.34317 0.900549 2.34367 0.900563 2.34417L1.00052 2.34126M0.900521 2.34266V2.34126H1.00052M0.900521 2.34266L1.00052 2.34126M1.5265 1.52039C1.52644 1.5204 1.52639 1.52041 1.52633 1.52043L1.55063 1.61743L1.52667 1.52034C1.52661 1.52036 1.52656 1.52037 1.5265 1.52039ZM4.76441 1.06732L4.75506 0.967762C4.75491 0.967777 4.75475 0.967791 4.7546 0.967806L4.76441 1.06732ZM5.71128 2.34176C5.71128 2.34159 5.71128 2.34142 5.71128 2.34126H5.61128L5.71128 2.34221C5.71128 2.34206 5.71128 2.34191 5.71128 2.34176ZM4.03001 2.71403C3.96011 3.09363 3.78532 3.44712 3.52422 3.73377C3.26128 4.02244 2.92273 4.23028 2.54817 4.33451V2.99313C3.07309 2.87635 3.56541 2.78651 4.03001 2.71403Z" fill="#6C95FF" stroke="#6C95FF" stroke-width="0.2"/>
<path d="M15.2122 3.08333L15.2122 3.08334L15.2125 3.08511C15.3843 3.92641 15.8418 4.68237 16.5075 5.2247C17.1716 5.76572 18.0021 6.06088 18.8585 6.06041C18.9824 6.07519 19.1076 6.07494 19.2314 6.05965L19.2314 6.05977L19.2362 6.05895C19.4296 6.0256 19.6048 5.92429 19.7301 5.77326C19.8553 5.62241 19.9226 5.43187 19.92 5.23587V2.34297C19.9242 2.21431 19.8982 2.08644 19.844 1.96962C19.7896 1.85226 19.7084 1.74936 19.6068 1.66924L19.6063 1.66882C19.5073 1.59179 19.392 1.53839 19.2692 1.5127C19.1464 1.487 19.0194 1.48968 18.8978 1.52053L18.8978 1.52053L18.8969 1.52078C17.9369 1.77451 16.9596 1.95746 15.9729 2.06815C15.8593 2.08009 15.7494 2.11551 15.6503 2.17218C15.5521 2.22824 15.4666 2.30388 15.399 2.39438C15.3187 2.48733 15.2601 2.59708 15.2276 2.71562C15.1948 2.83546 15.1896 2.96117 15.2122 3.08333ZM18.2723 3.37555V4.32511C17.8422 4.19752 17.4653 3.93369 17.1982 3.57387C17.5478 3.51787 17.906 3.44928 18.2723 3.37555Z" fill="#6C95FF" stroke="#6C95FF" stroke-width="0.2"/>
<path d="M1.72434 14.7463L1.72466 14.7463C1.79132 14.7461 1.85771 14.7378 1.92237 14.7216L1.92263 14.7215C2.82333 14.4932 3.73763 14.3223 4.66 14.21C4.77138 14.1979 4.87914 14.1633 4.97668 14.1082C5.07443 14.0529 5.15986 13.9783 5.22771 13.8888L5.22833 13.888C5.29597 13.7968 5.34406 13.6927 5.36957 13.5822C5.39508 13.4716 5.39749 13.3571 5.37665 13.2456C5.21865 12.392 4.76702 11.6205 4.09999 11.0649C3.43297 10.5092 2.5926 10.2045 1.72447 10.2033H1.72434C1.50585 10.2033 1.29631 10.2901 1.14181 10.4446C0.987314 10.5991 0.900519 10.8087 0.900519 11.0272V13.9225C0.900519 14.141 0.987314 14.3505 1.14181 14.505C1.29631 14.6595 1.50585 14.7463 1.72434 14.7463ZM2.54817 12.0207C2.89696 12.1718 3.1975 12.416 3.41675 12.7264C3.13262 12.7736 2.84406 12.8286 2.54817 12.8882V12.0207Z" fill="#6C95FF" stroke="#6C95FF" stroke-width="0.2"/>
<path d="M15.4292 14.6275L15.4291 14.6275L15.4301 14.6321C15.472 14.8179 15.577 14.9835 15.7272 15.1007C15.8746 15.2156 16.0566 15.277 16.2434 15.2748L16.3133 15.2875L16.3279 15.2902L16.3426 15.2885C17.3376 15.1733 18.3237 14.9912 19.2942 14.7433C19.4769 14.6981 19.6385 14.5918 19.7524 14.442C19.866 14.2925 19.9251 14.1087 19.92 13.9211V11.0272C19.92 10.8087 19.8332 10.5991 19.6787 10.4446C19.5242 10.2901 19.3146 10.2033 19.0962 10.2033C18.1098 10.2033 17.1638 10.5952 16.4663 11.2926C15.7692 11.9898 15.3774 12.9352 15.377 13.9211C15.3706 14.1577 15.3881 14.3944 15.4292 14.6275ZM17.4782 12.6091C17.6918 12.3506 17.9645 12.1484 18.2723 12.019V13.2705C17.8418 13.3658 17.4364 13.4409 17.0473 13.5046C17.116 13.1762 17.2636 12.8687 17.4782 12.6091Z" fill="#6C95FF" stroke="#6C95FF" stroke-width="0.2"/>
<path d="M8.9626 11.1272H11.496C12.0024 11.1272 12.4881 10.926 12.8463 10.5679C13.2044 10.2098 13.4055 9.72405 13.4055 9.2176C13.4055 8.71115 13.2044 8.22545 12.8463 7.86734C12.4881 7.50922 12.0024 7.30804 11.496 7.30804H9.32451C9.25505 7.30804 9.18843 7.28044 9.13931 7.23133C9.0902 7.18221 9.0626 7.11559 9.0626 7.04613C9.0626 6.97666 9.0902 6.91004 9.13931 6.86093C9.18843 6.81181 9.25505 6.78421 9.32451 6.78421H11.8579C12.0764 6.78421 12.2859 6.69742 12.4404 6.54292C12.5949 6.38842 12.6817 6.17888 12.6817 5.96039C12.6817 5.7419 12.5949 5.53235 12.4404 5.37786C12.2859 5.22336 12.0764 5.13656 11.8579 5.13656H9.32451C8.81807 5.13656 8.33236 5.33775 7.97425 5.69586C7.61614 6.05397 7.41495 6.53968 7.41495 7.04613C7.41495 7.55257 7.61614 8.03828 7.97425 8.39639C8.33236 8.7545 8.81807 8.95569 9.32451 8.95569H11.496C11.5655 8.95569 11.6321 8.98328 11.6812 9.0324C11.7303 9.08152 11.7579 9.14813 11.7579 9.2176C11.7579 9.28706 11.7303 9.35368 11.6812 9.4028C11.6321 9.45192 11.5655 9.47951 11.496 9.47951H8.9626C8.74411 9.47951 8.53457 9.56631 8.38007 9.7208C8.22557 9.8753 8.13878 10.0848 8.13878 10.3033C8.13878 10.5218 8.22557 10.7314 8.38007 10.8859C8.53457 11.0404 8.74411 11.1272 8.9626 11.1272Z" fill="#6C95FF" stroke="#6C95FF" stroke-width="0.2"/>
<path d="M9.82772 6.54292C9.98222 6.69742 10.1918 6.78421 10.4103 6.78421C10.6287 6.78421 10.8383 6.69742 10.9928 6.54292C11.1473 6.38842 11.2341 6.17888 11.2341 5.96039V5.23657C11.2341 5.01807 11.1473 4.80853 10.9928 4.65403C10.8383 4.49954 10.6287 4.41274 10.4103 4.41274C10.1918 4.41274 9.98222 4.49954 9.82772 4.65403C9.67323 4.80853 9.58643 5.01807 9.58643 5.23657V5.96039C9.58643 6.17888 9.67323 6.38842 9.82772 6.54292Z" fill="#6C95FF" stroke="#6C95FF" stroke-width="0.2"/>
<path d="M9.82772 11.6097C9.98222 11.7642 10.1918 11.851 10.4103 11.851C10.6287 11.851 10.8383 11.7642 10.9928 11.6097C11.1473 11.4552 11.2341 11.2457 11.2341 11.0272V10.3033C11.2341 10.0848 11.1473 9.8753 10.9928 9.72081C10.8383 9.56631 10.6287 9.47951 10.4103 9.47951C10.1918 9.47951 9.98222 9.56631 9.82772 9.72081C9.67323 9.8753 9.58643 10.0848 9.58643 10.3033V11.0272C9.58643 11.2457 9.67323 11.4552 9.82772 11.6097Z" fill="#6C95FF" stroke="#6C95FF" stroke-width="0.2"/>
</svg>
