<svg width="36" height="35" viewBox="0 0 36 35" fill="none" xmlns="http://www.w3.org/2000/svg">
<path fill-rule="evenodd" clip-rule="evenodd" d="M4.5686 8.74999C4.5686 7.94457 5.22243 7.29166 6.02896 7.29166H29.3947C30.2012 7.29166 30.8551 7.94457 30.8551 8.74999C30.8551 9.55541 30.2012 10.2083 29.3947 10.2083H6.02896C5.22243 10.2083 4.5686 9.55541 4.5686 8.74999Z" fill="#FBC775"/>
<path fill-rule="evenodd" clip-rule="evenodd" d="M4.5686 17.5C4.5686 16.6946 5.22243 16.0417 6.02896 16.0417H29.3947C30.2012 16.0417 30.8551 16.6946 30.8551 17.5C30.8551 18.3054 30.2012 18.9583 29.3947 18.9583H6.02896C5.22243 18.9583 4.5686 18.3054 4.5686 17.5Z" fill="#FBC775"/>
<path fill-rule="evenodd" clip-rule="evenodd" d="M4.5686 26.25C4.5686 25.4446 5.22243 24.7917 6.02896 24.7917H29.3947C30.2012 24.7917 30.8551 25.4446 30.8551 26.25C30.8551 27.0554 30.2012 27.7083 29.3947 27.7083H6.02896C5.22243 27.7083 4.5686 27.0554 4.5686 26.25Z" fill="#FBC775"/>
</svg>
