<svg width="40" height="40" viewBox="0 0 40 40" fill="none" xmlns="http://www.w3.org/2000/svg">
<circle cx="20" cy="20" r="20" fill="url(#paint0_radial)"/>
<circle cx="20" cy="20" r="20" fill="url(#paint1_radial)"/>
<path d="M20 16.3589C18.0242 16.3589 16.3871 17.9677 16.3871 19.9718C16.3871 21.9758 17.996 23.5847 20 23.5847C22.004 23.5847 23.6129 21.9476 23.6129 19.9718C23.6129 17.996 21.9758 16.3589 20 16.3589ZM20 22.2863C18.7298 22.2863 17.6855 21.2419 17.6855 19.9718C17.6855 18.7016 18.7298 17.6573 20 17.6573C21.2702 17.6573 22.3145 18.7016 22.3145 19.9718C22.3145 21.2419 21.2702 22.2863 20 22.2863Z" fill="#F0F0F3"/>
<path d="M23.754 17.0927C24.2061 17.0927 24.5726 16.7263 24.5726 16.2742C24.5726 15.8221 24.2061 15.4556 23.754 15.4556C23.302 15.4556 22.9355 15.8221 22.9355 16.2742C22.9355 16.7263 23.302 17.0927 23.754 17.0927Z" fill="#F0F0F3"/>
<path d="M25.871 14.1573C25.1371 13.3952 24.0927 13 22.9073 13H17.0927C14.6371 13 13 14.6371 13 17.0927V22.879C13 24.0927 13.3952 25.1371 14.1855 25.8992C14.9476 26.6331 15.9637 27 17.121 27H22.879C24.0927 27 25.1089 26.6048 25.8427 25.8992C26.6048 25.1653 27 24.121 27 22.9073V17.0927C27 15.9073 26.6048 14.8911 25.871 14.1573ZM25.7581 22.9073C25.7581 23.7823 25.4476 24.4879 24.9395 24.9677C24.4315 25.4476 23.7258 25.7016 22.879 25.7016H17.121C16.2742 25.7016 15.5685 25.4476 15.0605 24.9677C14.5524 24.4597 14.2984 23.754 14.2984 22.879V17.0927C14.2984 16.246 14.5524 15.5403 15.0605 15.0323C15.5403 14.5524 16.2742 14.2984 17.121 14.2984H22.9355C23.7823 14.2984 24.4879 14.5524 24.996 15.0605C25.4758 15.5685 25.7581 16.2742 25.7581 17.0927V22.9073Z" fill="#F0F0F3"/>
<defs>
<radialGradient id="paint0_radial" cx="0" cy="0" r="1" gradientUnits="userSpaceOnUse" gradientTransform="translate(10.6251 43.0808) rotate(-90) scale(39.643 36.8711)">
<stop stop-color="#FFDD55"/>
<stop offset="0.1" stop-color="#FFDD55"/>
<stop offset="0.5" stop-color="#FF543E"/>
<stop offset="1" stop-color="#C837AB"/>
</radialGradient>
<radialGradient id="paint1_radial" cx="0" cy="0" r="1" gradientUnits="userSpaceOnUse" gradientTransform="rotate(104.744) scale(29.4703)">
<stop stop-color="#3771C8"/>
<stop offset="0.151042" stop-color="#3771C8" stop-opacity="0.885417"/>
<stop offset="0.9998" stop-color="#6600FF" stop-opacity="0"/>
<stop offset="0.9999" stop-color="#6504FE" stop-opacity="0.0239933"/>
<stop offset="1" stop-color="#6600FF" stop-opacity="0"/>
</radialGradient>
</defs>
</svg>
