<svg width="25" height="25" viewBox="0 0 25 25" fill="none" xmlns="http://www.w3.org/2000/svg">
<path fill-rule="evenodd" clip-rule="evenodd" d="M9.89331 2.9C5.92238 2.9 2.70331 6.12355 2.70331 10.1C2.70331 14.0765 5.92238 17.3 9.89331 17.3C13.8642 17.3 17.0833 14.0765 17.0833 10.1C17.0833 6.12355 13.8642 2.9 9.89331 2.9ZM0.306641 10.1C0.306641 4.79807 4.59874 0.5 9.89331 0.5C15.1879 0.5 19.48 4.79807 19.48 10.1C19.48 15.4019 15.1879 19.7 9.89331 19.7C4.59874 19.7 0.306641 15.4019 0.306641 10.1Z" fill="#FBC775"/>
<path fill-rule="evenodd" clip-rule="evenodd" d="M15.0376 15.2515C15.5056 14.7828 16.2644 14.7828 16.7323 15.2515L23.9223 22.4515C24.3903 22.9201 24.3903 23.6799 23.9223 24.1485C23.4544 24.6172 22.6956 24.6172 22.2276 24.1485L15.0376 16.9485C14.5697 16.4799 14.5697 15.7201 15.0376 15.2515Z" fill="#FBC775"/>
</svg>
