<svg width="17" height="17" viewBox="0 0 17 17" fill="none" xmlns="http://www.w3.org/2000/svg">
<path d="M13.726 17H3.2681C2.40135 17 1.57009 16.6557 0.957204 16.0428C0.344317 15.4299 0 14.5987 0 13.7319V4.58123C0 4.40788 0.0688633 4.24163 0.191441 4.11905C0.314018 3.99648 0.480269 3.92761 0.65362 3.92761H13.726C14.5928 3.92761 15.424 4.27193 16.0369 4.88482C16.6498 5.4977 16.9941 6.32896 16.9941 7.19571V13.7319C16.9941 14.5987 16.6498 15.4299 16.0369 16.0428C15.424 16.6557 14.5928 17 13.726 17ZM1.30724 5.23485V13.7319C1.30724 14.252 1.51383 14.7507 1.88156 15.1184C2.24929 15.4862 2.74805 15.6928 3.2681 15.6928H13.726C14.2461 15.6928 14.7448 15.4862 15.1126 15.1184C15.4803 14.7507 15.6869 14.252 15.6869 13.7319V7.19571C15.6869 6.67566 15.4803 6.17691 15.1126 5.80917C14.7448 5.44144 14.2461 5.23485 13.726 5.23485H1.30724Z" fill="#FBC775"/>
<path d="M15.0333 5.23484C14.86 5.23484 14.6937 5.16598 14.5711 5.0434C14.4486 4.92082 14.3797 4.75457 14.3797 4.58122V2.78377C14.3922 2.5548 14.3529 2.32595 14.2646 2.11431C14.1763 1.90267 14.0414 1.7137 13.8699 1.5615C13.7158 1.44604 13.5374 1.3672 13.3482 1.33096C13.1591 1.29472 12.9642 1.30203 12.7783 1.35234L1.81714 3.84263C1.66969 3.87584 1.53831 3.95911 1.44536 4.07828C1.3524 4.19746 1.30362 4.34516 1.30731 4.49625C1.30731 4.6696 1.23845 4.83585 1.11587 4.95843C0.993294 5.08101 0.827043 5.14987 0.653692 5.14987C0.480341 5.14987 0.314091 5.08101 0.191513 4.95843C0.0689356 4.83585 7.22775e-05 4.6696 7.22775e-05 4.49625C-0.00376282 4.04943 0.145125 3.6147 0.422082 3.26405C0.699039 2.91339 1.08745 2.66785 1.52301 2.56807L12.4907 0.0777807C12.868 -0.0175985 13.262 -0.0253659 13.6427 0.0550736C14.0233 0.135513 14.3805 0.302025 14.6869 0.541851C15.0109 0.81679 15.2689 1.16099 15.442 1.54903C15.6151 1.93707 15.6988 2.35904 15.6869 2.78377V4.58122C15.6869 4.75457 15.6181 4.92082 15.4955 5.0434C15.3729 5.16598 15.2067 5.23484 15.0333 5.23484Z" fill="#FBC775"/>
<path d="M16.1898 12.229H11.6145C10.9211 12.229 10.2561 11.9535 9.76576 11.4632C9.27545 10.9729 9 10.3079 9 9.61448C9 8.92108 9.27545 8.25607 9.76576 7.76576C10.2561 7.27545 10.9211 7 11.6145 7H16.1898C16.3632 7 16.5294 7.06886 16.652 7.19144C16.7746 7.31402 16.8434 7.48027 16.8434 7.65362V11.5753C16.8434 11.7487 16.7746 11.9149 16.652 12.0375C16.5294 12.1601 16.3632 12.229 16.1898 12.229ZM11.6145 8.30724C11.2678 8.30724 10.9353 8.44497 10.6901 8.69012C10.445 8.93528 10.3072 9.26778 10.3072 9.61448C10.3072 9.96118 10.445 10.2937 10.6901 10.5388C10.9353 10.784 11.2678 10.9217 11.6145 10.9217H15.5362V8.30724H11.6145Z" fill="#FBC775"/>
</svg>
